emb/handin_group3/analog_analysis/C2analog_output00007.csv

"Record Length",100002,"Points",0.0001452,-0.035
"Sample Interval",1e-009,s,0.000145201,-0.035
"Trigger Point",-145199,"Samples",0.000145202,-0.035
"Trigger Time",-0.99999,s,0.000145203,-0.0683333
,,,0.000145204,-0.0683333
"Horizontal Offset",0.0001452,s,0.000145205,-0.0683333
,,,0.000145206,-0.0683333
,,,0.000145207,-0.0683333
,,,0.000145208,-0.0683333
,,,0.000145209,-0.0683333
,,,0.00014521,-0.0683333
,,,0.000145211,-0.0683333
,,,0.000145212,-0.035
,,,0.000145213,-0.035
,,,0.000145214,-0.035
,,,0.000145215,-0.035
,,,0.000145216,-0.035
,,,0.000145217,-0.035
,,,0.000145218,-0.035
,,,0.000145219,-0.035
,,,0.00014522,-0.035
,,,0.000145221,-0.035
,,,0.000145222,-0.035
,,,0.000145223,-0.035
,,,0.000145224,-0.035
,,,0.000145225,-0.035
,,,0.000145226,-0.035
,,,0.000145227,-0.0683333
,,,0.000145228,-0.0683333
,,,0.000145229,-0.0683333
,,,0.00014523,-0.0683333
,,,0.000145231,-0.0683333
,,,0.000145232,-0.0683333
,,,0.000145233,-0.035
,,,0.000145234,-0.035
,,,0.000145235,-0.035
,,,0.000145236,-0.035
,,,0.000145237,-0.035
,,,0.000145238,-0.035
,,,0.000145239,-0.035
,,,0.00014524,-0.035
,,,0.000145241,-0.035
,,,0.000145242,-0.0683333
,,,0.000145243,-0.0683333
,,,0.000145244,-0.0683333
,,,0.000145245,-0.0683333
,,,0.000145246,-0.035
,,,0.000145247,-0.035
,,,0.000145248,-0.035
,,,0.000145249,-0.035
,,,0.00014525,-0.035
,,,0.000145251,-0.035
,,,0.000145252,-0.035
,,,0.000145253,-0.035
,,,0.000145254,-0.035
,,,0.000145255,-0.035
,,,0.000145256,0.065
,,,0.000145257,0.065
,,,0.000145258,0.065
,,,0.000145259,0.0316667
,,,0.00014526,-0.035
,,,0.000145261,-0.035
,,,0.000145262,-0.00166667
,,,0.000145263,-0.00166667
,,,0.000145264,-0.0683333
,,,0.000145265,-0.101667
,,,0.000145266,-0.135
,,,0.000145267,-0.135
,,,0.000145268,-0.101667
,,,0.000145269,-0.135
,,,0.00014527,-0.168333
,,,0.000145271,-0.168333
,,,0.000145272,-0.168333
,,,0.000145273,-0.135
,,,0.000145274,-0.101667
,,,0.000145275,-0.101667
,,,0.000145276,-0.101667
,,,0.000145277,-0.101667
,,,0.000145278,-0.101667
,,,0.000145279,-0.0683333
,,,0.00014528,-0.035
,,,0.000145281,-0.035
,,,0.000145282,-0.00166667
,,,0.000145283,0.0316667
,,,0.000145284,0.0316667
,,,0.000145285,0.0316667
,,,0.000145286,0.0316667
,,,0.000145287,0.065
,,,0.000145288,-0.00166667
,,,0.000145289,-0.00166667
,,,0.00014529,-0.00166667
,,,0.000145291,-0.00166667
,,,0.000145292,-0.00166667
,,,0.000145293,-0.00166667
,,,0.000145294,-0.035
,,,0.000145295,-0.035
,,,0.000145296,-0.035
,,,0.000145297,-0.035
,,,0.000145298,-0.035
,,,0.000145299,-0.035
,,,0.0001453,-0.035
,,,0.000145301,-0.0683333
,,,0.000145302,-0.0683333
,,,0.000145303,-0.0683333
,,,0.000145304,-0.0683333
,,,0.000145305,-0.0683333
,,,0.000145306,-0.0683333
,,,0.000145307,-0.0683333
,,,0.000145308,-0.0683333
,,,0.000145309,-0.0683333
,,,0.00014531,-0.035
,,,0.000145311,-0.035
,,,0.000145312,-0.00166667
,,,0.000145313,-0.00166667
,,,0.000145314,0.0316667
,,,0.000145315,0.0316667
,,,0.000145316,0.0316667
,,,0.000145317,0.0316667
,,,0.000145318,0.0316667
,,,0.000145319,0.0316667
,,,0.00014532,0.0316667
,,,0.000145321,-0.00166667
,,,0.000145322,-0.00166667
,,,0.000145323,-0.035
,,,0.000145324,-0.0683333
,,,0.000145325,-0.0683333
,,,0.000145326,-0.0683333
,,,0.000145327,-0.0683333
,,,0.000145328,-0.0683333
,,,0.000145329,-0.0683333
,,,0.00014533,-0.0683333
,,,0.000145331,-0.0683333
,,,0.000145332,-0.0683333
,,,0.000145333,-0.035
,,,0.000145334,-0.035
,,,0.000145335,-0.035
,,,0.000145336,-0.00166667
,,,0.000145337,0.0316667
,,,0.000145338,0.0316667
,,,0.000145339,0.0316667
,,,0.00014534,0.0316667
,,,0.000145341,0.0316667
,,,0.000145342,0.0316667
,,,0.000145343,0.0316667
,,,0.000145344,0.0316667
,,,0.000145345,-0.00166667
,,,0.000145346,-0.00166667
,,,0.000145347,-0.035
,,,0.000145348,-0.035
,,,0.000145349,-0.0683333
,,,0.00014535,-0.0683333
,,,0.000145351,-0.0683333
,,,0.000145352,-0.0683333
,,,0.000145353,-0.0683333
,,,0.000145354,-0.0683333
,,,0.000145355,-0.0683333
,,,0.000145356,-0.0683333
,,,0.000145357,-0.0683333
,,,0.000145358,-0.0683333
,,,0.000145359,-0.0683333
,,,0.00014536,-0.035
,,,0.000145361,-0.035
,,,0.000145362,-0.035
,,,0.000145363,-0.00166667
,,,0.000145364,-0.00166667
,,,0.000145365,-0.00166667
,,,0.000145366,-0.00166667
,,,0.000145367,-0.00166667
,,,0.000145368,-0.00166667
,,,0.000145369,-0.00166667
,,,0.00014537,-0.00166667
,,,0.000145371,-0.00166667
,,,0.000145372,-0.00166667
,,,0.000145373,-0.00166667
,,,0.000145374,-0.035
,,,0.000145375,-0.035
,,,0.000145376,-0.035
,,,0.000145377,-0.0683333
,,,0.000145378,-0.0683333
,,,0.000145379,-0.0683333
,,,0.00014538,-0.0683333
,,,0.000145381,-0.0683333
,,,0.000145382,-0.0683333
,,,0.000145383,-0.0683333
,,,0.000145384,-0.0683333
,,,0.000145385,-0.035
,,,0.000145386,-0.035
,,,0.000145387,-0.035
,,,0.000145388,-0.035
,,,0.000145389,-0.035
,,,0.00014539,-0.00166667
,,,0.000145391,-0.00166667
,,,0.000145392,-0.035
,,,0.000145393,-0.035
,,,0.000145394,-0.035
,,,0.000145395,-0.0683333
,,,0.000145396,-0.101667
,,,0.000145397,-0.135
,,,0.000145398,-0.101667
,,,0.000145399,-0.035
,,,0.0001454,-0.035
,,,0.000145401,-0.0683333
,,,0.000145402,-0.0683333
,,,0.000145403,-0.035
,,,0.000145404,-0.00166667
,,,0.000145405,-0.00166667
,,,0.000145406,0.0316667
,,,0.000145407,0.0316667
,,,0.000145408,0.0316667
,,,0.000145409,0.0316667
,,,0.00014541,0.065
,,,0.000145411,0.065
,,,0.000145412,0.065
,,,0.000145413,0.0316667
,,,0.000145414,0.0316667
,,,0.000145415,-0.00166667
,,,0.000145416,-0.00166667
,,,0.000145417,-0.00166667
,,,0.000145418,-0.00166667
,,,0.000145419,-0.035
,,,0.00014542,-0.035
,,,0.000145421,-0.035
,,,0.000145422,-0.035
,,,0.000145423,-0.101667
,,,0.000145424,-0.101667
,,,0.000145425,-0.101667
,,,0.000145426,-0.0683333
,,,0.000145427,-0.0683333
,,,0.000145428,-0.035
,,,0.000145429,-0.035
,,,0.00014543,-0.035
,,,0.000145431,-0.035
,,,0.000145432,-0.035
,,,0.000145433,-0.00166667
,,,0.000145434,-0.00166667
,,,0.000145435,-0.00166667
,,,0.000145436,-0.035
,,,0.000145437,-0.035
,,,0.000145438,-0.035
,,,0.000145439,-0.035
,,,0.00014544,-0.035
,,,0.000145441,-0.035
,,,0.000145442,-0.035
,,,0.000145443,-0.0683333
,,,0.000145444,-0.0683333
,,,0.000145445,-0.101667
,,,0.000145446,-0.0683333
,,,0.000145447,-0.0683333
,,,0.000145448,-0.035
,,,0.000145449,-0.035
,,,0.00014545,-0.00166667
,,,0.000145451,-0.00166667
,,,0.000145452,-0.00166667
,,,0.000145453,-0.00166667
,,,0.000145454,-0.00166667
,,,0.000145455,-0.00166667
,,,0.000145456,-0.035
,,,0.000145457,-0.035
,,,0.000145458,-0.0683333
,,,0.000145459,-0.0683333
,,,0.00014546,-0.0683333
,,,0.000145461,-0.0683333
,,,0.000145462,-0.0683333
,,,0.000145463,-0.0683333
,,,0.000145464,-0.0683333
,,,0.000145465,-0.0683333
,,,0.000145466,-0.035
,,,0.000145467,-0.0683333
,,,0.000145468,-0.0683333
,,,0.000145469,-0.0683333
,,,0.00014547,-0.0683333
,,,0.000145471,-0.0683333
,,,0.000145472,-0.0683333
,,,0.000145473,-0.0683333
,,,0.000145474,-0.035
,,,0.000145475,-0.035
,,,0.000145476,-0.035
,,,0.000145477,-0.035
,,,0.000145478,-0.035
,,,0.000145479,-0.035
,,,0.00014548,-0.035
,,,0.000145481,-0.035
,,,0.000145482,-0.035
,,,0.000145483,-0.035
,,,0.000145484,-0.035
,,,0.000145485,-0.035
,,,0.000145486,-0.035
,,,0.000145487,-0.035
,,,0.000145488,-0.035
,,,0.000145489,-0.0683333
,,,0.00014549,-0.035
,,,0.000145491,-0.035
,,,0.000145492,-0.035
,,,0.000145493,-0.035
,,,0.000145494,-0.035
,,,0.000145495,-0.035
,,,0.000145496,-0.0683333
,,,0.000145497,-0.0683333
,,,0.000145498,-0.0683333
,,,0.000145499,-0.035
,,,0.0001455,-0.035
,,,0.000145501,-0.035
,,,0.000145502,-0.035
,,,0.000145503,-0.035
,,,0.000145504,-0.035
,,,0.000145505,-0.035
,,,0.000145506,-0.035
,,,0.000145507,-0.035
,,,0.000145508,-0.0683333
,,,0.000145509,-0.0683333
,,,0.00014551,-0.0683333
,,,0.000145511,-0.0683333
,,,0.000145512,-0.035
,,,0.000145513,-0.035
,,,0.000145514,-0.035
,,,0.000145515,-0.035
,,,0.000145516,-0.035
,,,0.000145517,-0.035
,,,0.000145518,-0.035
,,,0.000145519,-0.035
,,,0.00014552,-0.035
,,,0.000145521,-0.035
,,,0.000145522,-0.035
,,,0.000145523,-0.035
,,,0.000145524,-0.035
,,,0.000145525,-0.035
,,,0.000145526,-0.035
,,,0.000145527,-0.035
,,,0.000145528,-0.035
,,,0.000145529,-0.035
,,,0.00014553,-0.035
,,,0.000145531,-0.035
,,,0.000145532,-0.035
,,,0.000145533,-0.035
,,,0.000145534,-0.035
,,,0.000145535,-0.00166667
,,,0.000145536,0.0316667
,,,0.000145537,0.065
,,,0.000145538,0.065
,,,0.000145539,0.0316667
,,,0.00014554,-0.00166667
,,,0.000145541,-0.035
,,,0.000145542,-0.035
,,,0.000145543,-0.035
,,,0.000145544,-0.0683333
,,,0.000145545,-0.101667
,,,0.000145546,-0.135
,,,0.000145547,-0.101667
,,,0.000145548,-0.101667
,,,0.000145549,-0.101667
,,,0.00014555,-0.135
,,,0.000145551,-0.135
,,,0.000145552,-0.168333
,,,0.000145553,-0.135
,,,0.000145554,-0.101667
,,,0.000145555,-0.0683333
,,,0.000145556,-0.0683333
,,,0.000145557,-0.101667
,,,0.000145558,-0.101667
,,,0.000145559,-0.035
,,,0.00014556,-0.00166667
,,,0.000145561,-0.00166667
,,,0.000145562,-0.00166667
,,,0.000145563,-0.00166667
,,,0.000145564,0.0316667
,,,0.000145565,0.065
,,,0.000145566,0.065
,,,0.000145567,0.0316667
,,,0.000145568,-0.00166667
,,,0.000145569,-0.00166667
,,,0.00014557,-0.00166667
,,,0.000145571,-0.00166667
,,,0.000145572,-0.00166667
,,,0.000145573,-0.00166667
,,,0.000145574,-0.00166667
,,,0.000145575,-0.035
,,,0.000145576,-0.035
,,,0.000145577,-0.035
,,,0.000145578,-0.035
,,,0.000145579,-0.035
,,,0.00014558,-0.0683333
,,,0.000145581,-0.101667
,,,0.000145582,-0.101667
,,,0.000145583,-0.101667
,,,0.000145584,-0.101667
,,,0.000145585,-0.0683333
,,,0.000145586,-0.0683333
,,,0.000145587,-0.035
,,,0.000145588,-0.035
,,,0.000145589,-0.035
,,,0.00014559,-0.035
,,,0.000145591,-0.00166667
,,,0.000145592,-0.00166667
,,,0.000145593,-0.00166667
,,,0.000145594,-0.00166667
,,,0.000145595,0.0316667
,,,0.000145596,0.0316667
,,,0.000145597,0.0316667
,,,0.000145598,0.0316667
,,,0.000145599,0.0316667
,,,0.0001456,0.0316667
,,,0.000145601,-0.00166667
,,,0.000145602,-0.00166667
,,,0.000145603,-0.0683333
,,,0.000145604,-0.0683333
,,,0.000145605,-0.0683333
,,,0.000145606,-0.0683333
,,,0.000145607,-0.0683333
,,,0.000145608,-0.0683333
,,,0.000145609,-0.0683333
,,,0.00014561,-0.0683333
,,,0.000145611,-0.0683333
,,,0.000145612,-0.0683333
,,,0.000145613,-0.00166667
,,,0.000145614,-0.00166667
,,,0.000145615,-0.00166667
,,,0.000145616,-0.00166667
,,,0.000145617,-0.00166667
,,,0.000145618,-0.00166667
,,,0.000145619,0.0316667
,,,0.00014562,0.0316667
,,,0.000145621,0.0316667
,,,0.000145622,0.0316667
,,,0.000145623,0.0316667
,,,0.000145624,0.0316667
,,,0.000145625,0.0316667
,,,0.000145626,-0.00166667
,,,0.000145627,-0.00166667
,,,0.000145628,-0.00166667
,,,0.000145629,-0.035
,,,0.00014563,-0.035
,,,0.000145631,-0.035
,,,0.000145632,-0.035
,,,0.000145633,-0.0683333
,,,0.000145634,-0.0683333
,,,0.000145635,-0.0683333
,,,0.000145636,-0.035
,,,0.000145637,-0.035
,,,0.000145638,-0.035
,,,0.000145639,-0.035
,,,0.00014564,-0.00166667
,,,0.000145641,-0.00166667
,,,0.000145642,-0.00166667
,,,0.000145643,-0.00166667
,,,0.000145644,-0.00166667
,,,0.000145645,-0.00166667
,,,0.000145646,0.0316667
,,,0.000145647,0.0316667
,,,0.000145648,0.0316667
,,,0.000145649,0.0316667
,,,0.00014565,0.0316667
,,,0.000145651,-0.00166667
,,,0.000145652,-0.00166667
,,,0.000145653,-0.00166667
,,,0.000145654,-0.00166667
,,,0.000145655,-0.035
,,,0.000145656,-0.035
,,,0.000145657,-0.035
,,,0.000145658,-0.0683333
,,,0.000145659,-0.0683333
,,,0.00014566,-0.0683333
,,,0.000145661,-0.0683333
,,,0.000145662,-0.0683333
,,,0.000145663,-0.035
,,,0.000145664,-0.035
,,,0.000145665,-0.035
,,,0.000145666,-0.035
,,,0.000145667,-0.035
,,,0.000145668,-0.00166667
,,,0.000145669,-0.00166667
,,,0.00014567,-0.00166667
,,,0.000145671,-0.00166667
,,,0.000145672,-0.00166667
,,,0.000145673,-0.00166667
,,,0.000145674,-0.035
,,,0.000145675,-0.0683333
,,,0.000145676,-0.101667
,,,0.000145677,-0.135
,,,0.000145678,-0.101667
,,,0.000145679,-0.0683333
,,,0.00014568,-0.035
,,,0.000145681,-0.035
,,,0.000145682,-0.0683333
,,,0.000145683,-0.035
,,,0.000145684,-0.00166667
,,,0.000145685,0.0316667
,,,0.000145686,0.0316667
,,,0.000145687,0.0316667
,,,0.000145688,-0.00166667
,,,0.000145689,0.0316667
,,,0.00014569,0.065
,,,0.000145691,0.065
,,,0.000145692,0.065
,,,0.000145693,0.065
,,,0.000145694,0.0316667
,,,0.000145695,-0.00166667
,,,0.000145696,-0.00166667
,,,0.000145697,0.0316667
,,,0.000145698,0.0316667
,,,0.000145699,-0.00166667
,,,0.0001457,-0.00166667
,,,0.000145701,-0.00166667
,,,0.000145702,-0.035
,,,0.000145703,-0.0683333
,,,0.000145704,-0.101667
,,,0.000145705,-0.101667
,,,0.000145706,-0.101667
,,,0.000145707,-0.0683333
,,,0.000145708,-0.035
,,,0.000145709,-0.035
,,,0.00014571,-0.035
,,,0.000145711,-0.035
,,,0.000145712,-0.035
,,,0.000145713,-0.00166667
,,,0.000145714,0.0316667
,,,0.000145715,-0.00166667
,,,0.000145716,-0.00166667
,,,0.000145717,-0.035
,,,0.000145718,-0.035
,,,0.000145719,-0.00166667
,,,0.00014572,-0.035
,,,0.000145721,-0.035
,,,0.000145722,-0.035
,,,0.000145723,-0.0683333
,,,0.000145724,-0.0683333
,,,0.000145725,-0.0683333
,,,0.000145726,-0.0683333
,,,0.000145727,-0.0683333
,,,0.000145728,-0.035
,,,0.000145729,-0.035
,,,0.00014573,-0.035
,,,0.000145731,-0.00166667
,,,0.000145732,-0.00166667
,,,0.000145733,-0.00166667
,,,0.000145734,-0.00166667
,,,0.000145735,-0.00166667
,,,0.000145736,-0.00166667
,,,0.000145737,-0.00166667
,,,0.000145738,-0.035
,,,0.000145739,-0.035
,,,0.00014574,-0.035
,,,0.000145741,-0.035
,,,0.000145742,-0.035
,,,0.000145743,-0.035
,,,0.000145744,-0.0683333
,,,0.000145745,-0.0683333
,,,0.000145746,-0.0683333
,,,0.000145747,-0.035
,,,0.000145748,-0.035
,,,0.000145749,-0.0683333
,,,0.00014575,-0.0683333
,,,0.000145751,-0.0683333
,,,0.000145752,-0.0683333
,,,0.000145753,-0.035
,,,0.000145754,-0.035
,,,0.000145755,-0.035
,,,0.000145756,-0.00166667
,,,0.000145757,-0.035
,,,0.000145758,-0.035
,,,0.000145759,-0.035
,,,0.00014576,-0.035
,,,0.000145761,-0.035
,,,0.000145762,-0.035
,,,0.000145763,-0.035
,,,0.000145764,-0.035
,,,0.000145765,-0.035
,,,0.000145766,-0.035
,,,0.000145767,-0.035
,,,0.000145768,-0.035
,,,0.000145769,-0.035
,,,0.00014577,-0.035
,,,0.000145771,-0.035
,,,0.000145772,-0.035
,,,0.000145773,-0.035
,,,0.000145774,-0.035
,,,0.000145775,-0.035
,,,0.000145776,-0.035
,,,0.000145777,-0.035
,,,0.000145778,-0.035
,,,0.000145779,-0.035
,,,0.00014578,-0.035
,,,0.000145781,-0.035
,,,0.000145782,-0.035
,,,0.000145783,-0.035
,,,0.000145784,-0.035
,,,0.000145785,-0.035
,,,0.000145786,-0.035
,,,0.000145787,-0.035
,,,0.000145788,-0.035
,,,0.000145789,-0.035
,,,0.00014579,-0.0683333
,,,0.000145791,-0.0683333
,,,0.000145792,-0.0683333
,,,0.000145793,-0.035
,,,0.000145794,-0.035
,,,0.000145795,-0.035
,,,0.000145796,-0.035
,,,0.000145797,-0.035
,,,0.000145798,-0.0683333
,,,0.000145799,-0.0683333
,,,0.0001458,-0.035
,,,0.000145801,-0.035
,,,0.000145802,-0.035
,,,0.000145803,-0.035
,,,0.000145804,-0.035
,,,0.000145805,-0.035
,,,0.000145806,-0.035
,,,0.000145807,-0.035
,,,0.000145808,-0.035
,,,0.000145809,-0.035
,,,0.00014581,-0.035
,,,0.000145811,-0.035
,,,0.000145812,-0.035
,,,0.000145813,-0.035
,,,0.000145814,-0.035
,,,0.000145815,-0.00166667
,,,0.000145816,0.065
,,,0.000145817,0.0983333
,,,0.000145818,0.0983333
,,,0.000145819,0.065
,,,0.00014582,-0.00166667
,,,0.000145821,-0.00166667
,,,0.000145822,-0.00166667
,,,0.000145823,-0.035
,,,0.000145824,-0.0683333
,,,0.000145825,-0.101667
,,,0.000145826,-0.101667
,,,0.000145827,-0.101667
,,,0.000145828,-0.101667
,,,0.000145829,-0.101667
,,,0.00014583,-0.135
,,,0.000145831,-0.168333
,,,0.000145832,-0.168333
,,,0.000145833,-0.135
,,,0.000145834,-0.101667
,,,0.000145835,-0.0683333
,,,0.000145836,-0.0683333
,,,0.000145837,-0.101667
,,,0.000145838,-0.101667
,,,0.000145839,-0.035
,,,0.00014584,-0.035
,,,0.000145841,-0.00166667
,,,0.000145842,-0.00166667
,,,0.000145843,0.0316667
,,,0.000145844,0.0316667
,,,0.000145845,0.0316667
,,,0.000145846,0.0316667
,,,0.000145847,0.0316667
,,,0.000145848,-0.00166667
,,,0.000145849,-0.00166667
,,,0.00014585,-0.00166667
,,,0.000145851,-0.00166667
,,,0.000145852,-0.00166667
,,,0.000145853,-0.00166667
,,,0.000145854,-0.00166667
,,,0.000145855,-0.035
,,,0.000145856,-0.035
,,,0.000145857,-0.035
,,,0.000145858,-0.035
,,,0.000145859,-0.0683333
,,,0.00014586,-0.0683333
,,,0.000145861,-0.101667
,,,0.000145862,-0.101667
,,,0.000145863,-0.101667
,,,0.000145864,-0.101667
,,,0.000145865,-0.101667
,,,0.000145866,-0.0683333
,,,0.000145867,-0.0683333
,,,0.000145868,-0.035
,,,0.000145869,-0.035
,,,0.00014587,-0.00166667
,,,0.000145871,-0.00166667
,,,0.000145872,-0.00166667
,,,0.000145873,-0.00166667
,,,0.000145874,-0.00166667
,,,0.000145875,0.0316667
,,,0.000145876,0.0316667
,,,0.000145877,0.0316667
,,,0.000145878,0.0316667
,,,0.000145879,0.0316667
,,,0.00014588,0.0316667
,,,0.000145881,-0.00166667
,,,0.000145882,-0.00166667
,,,0.000145883,-0.035
,,,0.000145884,-0.035
,,,0.000145885,-0.0683333
,,,0.000145886,-0.0683333
,,,0.000145887,-0.0683333
,,,0.000145888,-0.0683333
,,,0.000145889,-0.0683333
,,,0.00014589,-0.0683333
,,,0.000145891,-0.0683333
,,,0.000145892,-0.035
,,,0.000145893,-0.035
,,,0.000145894,-0.035
,,,0.000145895,-0.00166667
,,,0.000145896,-0.00166667
,,,0.000145897,-0.00166667
,,,0.000145898,-0.00166667
,,,0.000145899,-0.00166667
,,,0.0001459,0.0316667
,,,0.000145901,0.0316667
,,,0.000145902,0.0316667
,,,0.000145903,0.0316667
,,,0.000145904,-0.00166667
,,,0.000145905,-0.00166667
,,,0.000145906,-0.00166667
,,,0.000145907,-0.00166667
,,,0.000145908,-0.035
,,,0.000145909,-0.035
,,,0.00014591,-0.035
,,,0.000145911,-0.035
,,,0.000145912,-0.035
,,,0.000145913,-0.0683333
,,,0.000145914,-0.0683333
,,,0.000145915,-0.0683333
,,,0.000145916,-0.035
,,,0.000145917,-0.035
,,,0.000145918,-0.035
,,,0.000145919,-0.035
,,,0.00014592,-0.00166667
,,,0.000145921,-0.00166667
,,,0.000145922,-0.00166667
,,,0.000145923,-0.00166667
,,,0.000145924,-0.00166667
,,,0.000145925,-0.00166667
,,,0.000145926,-0.00166667
,,,0.000145927,-0.00166667
,,,0.000145928,-0.00166667
,,,0.000145929,-0.00166667
,,,0.00014593,-0.00166667
,,,0.000145931,-0.00166667
,,,0.000145932,-0.00166667
,,,0.000145933,-0.00166667
,,,0.000145934,-0.00166667
,,,0.000145935,-0.00166667
,,,0.000145936,-0.035
,,,0.000145937,-0.035
,,,0.000145938,-0.035
,,,0.000145939,-0.035
,,,0.00014594,-0.035
,,,0.000145941,-0.035
,,,0.000145942,-0.035
,,,0.000145943,-0.035
,,,0.000145944,-0.035
,,,0.000145945,-0.035
,,,0.000145946,-0.00166667
,,,0.000145947,-0.00166667
,,,0.000145948,-0.00166667
,,,0.000145949,-0.00166667
,,,0.00014595,-0.00166667
,,,0.000145951,-0.035
,,,0.000145952,-0.00166667
,,,0.000145953,-0.00166667
,,,0.000145954,-0.035
,,,0.000145955,-0.101667
,,,0.000145956,-0.135
,,,0.000145957,-0.135
,,,0.000145958,-0.135
,,,0.000145959,-0.0683333
,,,0.00014596,-0.0683333
,,,0.000145961,-0.0683333
,,,0.000145962,-0.0683333
,,,0.000145963,-0.00166667
,,,0.000145964,-0.00166667
,,,0.000145965,0.0316667
,,,0.000145966,0.065
,,,0.000145967,0.065
,,,0.000145968,0.065
,,,0.000145969,0.065
,,,0.00014597,0.065
,,,0.000145971,0.065
,,,0.000145972,0.065
,,,0.000145973,0.0316667
,,,0.000145974,-0.00166667
,,,0.000145975,-0.00166667
,,,0.000145976,-0.00166667
,,,0.000145977,-0.00166667
,,,0.000145978,-0.00166667
,,,0.000145979,-0.00166667
,,,0.00014598,-0.00166667
,,,0.000145981,-0.00166667
,,,0.000145982,-0.035
,,,0.000145983,-0.035
,,,0.000145984,-0.0683333
,,,0.000145985,-0.0683333
,,,0.000145986,-0.035
,,,0.000145987,-0.00166667
,,,0.000145988,-0.035
,,,0.000145989,-0.035
,,,0.00014599,-0.035
,,,0.000145991,-0.035
,,,0.000145992,-0.035
,,,0.000145993,-0.00166667
,,,0.000145994,-0.00166667
,,,0.000145995,-0.00166667
,,,0.000145996,-0.035
,,,0.000145997,-0.035
,,,0.000145998,-0.035
,,,0.000145999,-0.035
,,,0.000146,-0.035
,,,0.000146001,-0.035
,,,0.000146002,-0.0683333
,,,0.000146003,-0.0683333
,,,0.000146004,-0.0683333
,,,0.000146005,-0.0683333
,,,0.000146006,-0.0683333
,,,0.000146007,-0.0683333
,,,0.000146008,-0.035
,,,0.000146009,-0.035
,,,0.00014601,-0.035
,,,0.000146011,-0.035
,,,0.000146012,-0.00166667
,,,0.000146013,-0.00166667
,,,0.000146014,-0.00166667
,,,0.000146015,-0.035
,,,0.000146016,-0.035
,,,0.000146017,-0.035
,,,0.000146018,-0.0683333
,,,0.000146019,-0.0683333
