emb/handin_group3/analog_analysis/C4analog_output00005.csv

"Record Length",100002,"Points",0.000145199853,0.015
"Sample Interval",1e-009,s,0.000145200853,0.015
"Trigger Point",-145199,"Samples",0.000145201853,0.015
"Trigger Time",-0.85299,s,0.000145202853,0.015
,,,0.000145203853,0.015
"Horizontal Offset",0.0001452,s,0.000145204853,0.015
,,,0.000145205853,0.015
,,,0.000145206853,0.015
,,,0.000145207853,0.015
,,,0.000145208853,-0.0183333
,,,0.000145209853,-0.0183333
,,,0.000145210853,-0.0183333
,,,0.000145211853,-0.0183333
,,,0.000145212853,-0.0183333
,,,0.000145213853,-0.0183333
,,,0.000145214853,-0.0183333
,,,0.000145215853,-0.0183333
,,,0.000145216853,-0.0183333
,,,0.000145217853,-0.0183333
,,,0.000145218853,-0.0183333
,,,0.000145219853,0.015
,,,0.000145220853,0.015
,,,0.000145221853,0.015
,,,0.000145222853,0.015
,,,0.000145223853,0.015
,,,0.000145224853,0.015
,,,0.000145225853,0.015
,,,0.000145226853,0.015
,,,0.000145227853,0.015
,,,0.000145228853,-0.0183333
,,,0.000145229853,-0.0183333
,,,0.000145230853,-0.0183333
,,,0.000145231853,-0.0183333
,,,0.000145232853,-0.0183333
,,,0.000145233853,-0.0183333
,,,0.000145234853,-0.0183333
,,,0.000145235853,-0.0183333
,,,0.000145236853,-0.0183333
,,,0.000145237853,-0.0183333
,,,0.000145238853,0.015
,,,0.000145239853,0.015
,,,0.000145240853,0.015
,,,0.000145241853,0.015
,,,0.000145242853,0.015
,,,0.000145243853,0.015
,,,0.000145244853,0.015
,,,0.000145245853,0.015
,,,0.000145246853,0.015
,,,0.000145247853,0.015
,,,0.000145248853,0.015
,,,0.000145249853,0.015
,,,0.000145250853,0.015
,,,0.000145251853,0.015
,,,0.000145252853,0.015
,,,0.000145253853,0.015
,,,0.000145254853,0.0816667
,,,0.000145255853,0.115
,,,0.000145256853,0.115
,,,0.000145257853,0.115
,,,0.000145258853,0.0816667
,,,0.000145259853,0.015
,,,0.000145260853,-0.0183333
,,,0.000145261853,-0.0183333
,,,0.000145262853,-0.0183333
,,,0.000145263853,-0.0183333
,,,0.000145264853,-0.0516667
,,,0.000145265853,-0.085
,,,0.000145266853,-0.0516667
,,,0.000145267853,-0.0516667
,,,0.000145268853,-0.085
,,,0.000145269853,-0.085
,,,0.000145270853,-0.085
,,,0.000145271853,-0.085
,,,0.000145272853,-0.085
,,,0.000145273853,-0.085
,,,0.000145274853,-0.0516667
,,,0.000145275853,-0.0516667
,,,0.000145276853,-0.0516667
,,,0.000145277853,-0.0183333
,,,0.000145278853,0.0483333
,,,0.000145279853,0.0816667
,,,0.000145280853,0.0816667
,,,0.000145281853,0.0816667
,,,0.000145282853,0.0483333
,,,0.000145283853,0.0483333
,,,0.000145284853,0.0816667
,,,0.000145285853,0.0816667
,,,0.000145286853,0.0816667
,,,0.000145287853,0.0483333
,,,0.000145288853,0.0483333
,,,0.000145289853,0.0483333
,,,0.000145290853,0.0483333
,,,0.000145291853,0.0483333
,,,0.000145292853,0.015
,,,0.000145293853,0.015
,,,0.000145294853,0.0483333
,,,0.000145295853,0.015
,,,0.000145296853,0.015
,,,0.000145297853,0.015
,,,0.000145298853,-0.0183333
,,,0.000145299853,-0.0516667
,,,0.000145300853,-0.0516667
,,,0.000145301853,-0.0516667
,,,0.000145302853,-0.0516667
,,,0.000145303853,-0.0516667
,,,0.000145304853,-0.0516667
,,,0.000145305853,-0.0183333
,,,0.000145306853,-0.0183333
,,,0.000145307853,0.015
,,,0.000145308853,0.015
,,,0.000145309853,0.0483333
,,,0.000145310853,0.0483333
,,,0.000145311853,0.0483333
,,,0.000145312853,0.0483333
,,,0.000145313853,0.0816667
,,,0.000145314853,0.0816667
,,,0.000145315853,0.0816667
,,,0.000145316853,0.0816667
,,,0.000145317853,0.0816667
,,,0.000145318853,0.0483333
,,,0.000145319853,0.0483333
,,,0.000145320853,0.015
,,,0.000145321853,0.015
,,,0.000145322853,0.015
,,,0.000145323853,-0.0183333
,,,0.000145324853,-0.0183333
,,,0.000145325853,-0.0516667
,,,0.000145326853,-0.0516667
,,,0.000145327853,-0.0516667
,,,0.000145328853,-0.0516667
,,,0.000145329853,-0.0183333
,,,0.000145330853,-0.0183333
,,,0.000145331853,-0.0183333
,,,0.000145332853,-0.0183333
,,,0.000145333853,0.015
,,,0.000145334853,0.0483333
,,,0.000145335853,0.0483333
,,,0.000145336853,0.0483333
,,,0.000145337853,0.0483333
,,,0.000145338853,0.0816667
,,,0.000145339853,0.0816667
,,,0.000145340853,0.0816667
,,,0.000145341853,0.0816667
,,,0.000145342853,0.0483333
,,,0.000145343853,0.0483333
,,,0.000145344853,0.0483333
,,,0.000145345853,0.015
,,,0.000145346853,0.015
,,,0.000145347853,0.015
,,,0.000145348853,-0.0183333
,,,0.000145349853,-0.0183333
,,,0.000145350853,-0.0183333
,,,0.000145351853,-0.0183333
,,,0.000145352853,-0.0183333
,,,0.000145353853,-0.0183333
,,,0.000145354853,-0.0183333
,,,0.000145355853,-0.0183333
,,,0.000145356853,-0.0183333
,,,0.000145357853,-0.0183333
,,,0.000145358853,0.015
,,,0.000145359853,0.015
,,,0.000145360853,0.0483333
,,,0.000145361853,0.0483333
,,,0.000145362853,0.0483333
,,,0.000145363853,0.0483333
,,,0.000145364853,0.0483333
,,,0.000145365853,0.0483333
,,,0.000145366853,0.0483333
,,,0.000145367853,0.0483333
,,,0.000145368853,0.0483333
,,,0.000145369853,0.0483333
,,,0.000145370853,0.0483333
,,,0.000145371853,0.015
,,,0.000145372853,0.015
,,,0.000145373853,0.015
,,,0.000145374853,-0.0183333
,,,0.000145375853,-0.0183333
,,,0.000145376853,-0.0183333
,,,0.000145377853,-0.0183333
,,,0.000145378853,-0.0183333
,,,0.000145379853,-0.0183333
,,,0.000145380853,-0.0183333
,,,0.000145381853,-0.0183333
,,,0.000145382853,-0.0183333
,,,0.000145383853,-0.0183333
,,,0.000145384853,0.015
,,,0.000145385853,0.015
,,,0.000145386853,0.0483333
,,,0.000145387853,0.0483333
,,,0.000145388853,0.0483333
,,,0.000145389853,0.0483333
,,,0.000145390853,0.0483333
,,,0.000145391853,0.0483333
,,,0.000145392853,0.0483333
,,,0.000145393853,-0.0183333
,,,0.000145394853,-0.118333
,,,0.000145395853,-0.118333
,,,0.000145396853,-0.118333
,,,0.000145397853,-0.085
,,,0.000145398853,-0.0516667
,,,0.000145399853,0.015
,,,0.000145400853,0.015
,,,0.000145401853,0.015
,,,0.000145402853,0.0483333
,,,0.000145403853,0.0483333
,,,0.000145404853,0.0483333
,,,0.000145405853,0.0483333
,,,0.000145406853,0.0483333
,,,0.000145407853,0.0816667
,,,0.000145408853,0.0816667
,,,0.000145409853,0.0816667
,,,0.000145410853,0.0816667
,,,0.000145411853,0.0816667
,,,0.000145412853,0.0816667
,,,0.000145413853,0.0816667
,,,0.000145414853,0.0816667
,,,0.000145415853,0.0816667
,,,0.000145416853,0.0483333
,,,0.000145417853,-0.0183333
,,,0.000145418853,-0.0183333
,,,0.000145419853,-0.0516667
,,,0.000145420853,-0.0516667
,,,0.000145421853,-0.0183333
,,,0.000145422853,-0.0183333
,,,0.000145423853,-0.0183333
,,,0.000145424853,-0.0516667
,,,0.000145425853,-0.0516667
,,,0.000145426853,-0.0183333
,,,0.000145427853,-0.0183333
,,,0.000145428853,-0.0183333
,,,0.000145429853,0.015
,,,0.000145430853,0.0483333
,,,0.000145431853,0.0483333
,,,0.000145432853,0.015
,,,0.000145433853,0.015
,,,0.000145434853,0.015
,,,0.000145435853,-0.0183333
,,,0.000145436853,-0.0183333
,,,0.000145437853,-0.0183333
,,,0.000145438853,-0.0183333
,,,0.000145439853,0.015
,,,0.000145440853,0.015
,,,0.000145441853,0.015
,,,0.000145442853,-0.0183333
,,,0.000145443853,-0.0183333
,,,0.000145444853,-0.0183333
,,,0.000145445853,-0.0183333
,,,0.000145446853,-0.0183333
,,,0.000145447853,-0.0183333
,,,0.000145448853,-0.0183333
,,,0.000145449853,0.015
,,,0.000145450853,0.015
,,,0.000145451853,0.015
,,,0.000145452853,0.015
,,,0.000145453853,0.015
,,,0.000145454853,0.015
,,,0.000145455853,0.015
,,,0.000145456853,0.015
,,,0.000145457853,0.015
,,,0.000145458853,-0.0183333
,,,0.000145459853,-0.0183333
,,,0.000145460853,-0.0183333
,,,0.000145461853,-0.0516667
,,,0.000145462853,-0.0516667
,,,0.000145463853,-0.0516667
,,,0.000145464853,-0.0516667
,,,0.000145465853,-0.0183333
,,,0.000145466853,-0.0183333
,,,0.000145467853,-0.0183333
,,,0.000145468853,-0.0183333
,,,0.000145469853,-0.0183333
,,,0.000145470853,-0.0183333
,,,0.000145471853,-0.0183333
,,,0.000145472853,-0.0183333
,,,0.000145473853,-0.0183333
,,,0.000145474853,-0.0183333
,,,0.000145475853,-0.0183333
,,,0.000145476853,0.015
,,,0.000145477853,0.015
,,,0.000145478853,0.015
,,,0.000145479853,0.015
,,,0.000145480853,0.015
,,,0.000145481853,0.015
,,,0.000145482853,0.015
,,,0.000145483853,0.015
,,,0.000145484853,0.015
,,,0.000145485853,0.015
,,,0.000145486853,0.015
,,,0.000145487853,0.015
,,,0.000145488853,-0.0183333
,,,0.000145489853,-0.0183333
,,,0.000145490853,-0.0183333
,,,0.000145491853,-0.0183333
,,,0.000145492853,-0.0183333
,,,0.000145493853,-0.0183333
,,,0.000145494853,-0.0183333
,,,0.000145495853,-0.0183333
,,,0.000145496853,-0.0183333
,,,0.000145497853,-0.0183333
,,,0.000145498853,-0.0183333
,,,0.000145499853,-0.0183333
,,,0.000145500853,-0.0183333
,,,0.000145501853,-0.0183333
,,,0.000145502853,0.015
,,,0.000145503853,0.015
,,,0.000145504853,0.015
,,,0.000145505853,0.015
,,,0.000145506853,0.015
,,,0.000145507853,0.015
,,,0.000145508853,-0.0183333
,,,0.000145509853,-0.0183333
,,,0.000145510853,-0.0183333
,,,0.000145511853,-0.0183333
,,,0.000145512853,-0.0183333
,,,0.000145513853,-0.0183333
,,,0.000145514853,-0.0183333
,,,0.000145515853,-0.0183333
,,,0.000145516853,-0.0183333
,,,0.000145517853,-0.0183333
,,,0.000145518853,-0.0183333
,,,0.000145519853,0.015
,,,0.000145520853,0.015
,,,0.000145521853,0.015
,,,0.000145522853,0.015
,,,0.000145523853,0.015
,,,0.000145524853,0.015
,,,0.000145525853,0.015
,,,0.000145526853,0.015
,,,0.000145527853,0.015
,,,0.000145528853,0.015
,,,0.000145529853,0.015
,,,0.000145530853,0.015
,,,0.000145531853,0.015
,,,0.000145532853,-0.0183333
,,,0.000145533853,0.015
,,,0.000145534853,0.0816667
,,,0.000145535853,0.148333
,,,0.000145536853,0.148333
,,,0.000145537853,0.115
,,,0.000145538853,0.0816667
,,,0.000145539853,0.015
,,,0.000145540853,-0.0183333
,,,0.000145541853,-0.0183333
,,,0.000145542853,-0.0183333
,,,0.000145543853,-0.0516667
,,,0.000145544853,-0.085
,,,0.000145545853,-0.085
,,,0.000145546853,-0.0516667
,,,0.000145547853,-0.0516667
,,,0.000145548853,-0.085
,,,0.000145549853,-0.085
,,,0.000145550853,-0.085
,,,0.000145551853,-0.118333
,,,0.000145552853,-0.118333
,,,0.000145553853,-0.085
,,,0.000145554853,-0.0516667
,,,0.000145555853,-0.0516667
,,,0.000145556853,-0.0516667
,,,0.000145557853,-0.0183333
,,,0.000145558853,0.0483333
,,,0.000145559853,0.0816667
,,,0.000145560853,0.0816667
,,,0.000145561853,0.0483333
,,,0.000145562853,0.0483333
,,,0.000145563853,0.0483333
,,,0.000145564853,0.0483333
,,,0.000145565853,0.0816667
,,,0.000145566853,0.0816667
,,,0.000145567853,0.0816667
,,,0.000145568853,0.0483333
,,,0.000145569853,0.0483333
,,,0.000145570853,0.0483333
,,,0.000145571853,0.0483333
,,,0.000145572853,0.0483333
,,,0.000145573853,0.0483333
,,,0.000145574853,0.0483333
,,,0.000145575853,0.015
,,,0.000145576853,0.015
,,,0.000145577853,-0.0183333
,,,0.000145578853,-0.0183333
,,,0.000145579853,-0.0183333
,,,0.000145580853,-0.0516667
,,,0.000145581853,-0.0516667
,,,0.000145582853,-0.0516667
,,,0.000145583853,-0.0183333
,,,0.000145584853,-0.0183333
,,,0.000145585853,-0.0183333
,,,0.000145586853,0.015
,,,0.000145587853,0.015
,,,0.000145588853,0.015
,,,0.000145589853,0.0483333
,,,0.000145590853,0.0483333
,,,0.000145591853,0.0483333
,,,0.000145592853,0.0483333
,,,0.000145593853,0.0483333
,,,0.000145594853,0.0816667
,,,0.000145595853,0.0816667
,,,0.000145596853,0.0816667
,,,0.000145597853,0.0816667
,,,0.000145598853,0.0483333
,,,0.000145599853,0.0483333
,,,0.000145600853,0.0483333
,,,0.000145601853,0.015
,,,0.000145602853,0.015
,,,0.000145603853,-0.0183333
,,,0.000145604853,-0.0183333
,,,0.000145605853,-0.0183333
,,,0.000145606853,-0.0183333
,,,0.000145607853,-0.0183333
,,,0.000145608853,-0.0183333
,,,0.000145609853,-0.0183333
,,,0.000145610853,-0.0183333
,,,0.000145611853,-0.0183333
,,,0.000145612853,-0.0183333
,,,0.000145613853,0.015
,,,0.000145614853,0.015
,,,0.000145615853,0.0483333
,,,0.000145616853,0.0483333
,,,0.000145617853,0.0483333
,,,0.000145618853,0.0483333
,,,0.000145619853,0.0483333
,,,0.000145620853,0.0483333
,,,0.000145621853,0.0483333
,,,0.000145622853,0.0483333
,,,0.000145623853,0.0483333
,,,0.000145624853,0.0483333
,,,0.000145625853,0.015
,,,0.000145626853,0.015
,,,0.000145627853,-0.0183333
,,,0.000145628853,-0.0183333
,,,0.000145629853,-0.0183333
,,,0.000145630853,-0.0183333
,,,0.000145631853,-0.0183333
,,,0.000145632853,-0.0183333
,,,0.000145633853,-0.0183333
,,,0.000145634853,-0.0183333
,,,0.000145635853,-0.0183333
,,,0.000145636853,-0.0183333
,,,0.000145637853,0.015
,,,0.000145638853,0.015
,,,0.000145639853,0.015
,,,0.000145640853,0.015
,,,0.000145641853,0.0483333
,,,0.000145642853,0.0483333
,,,0.000145643853,0.0483333
,,,0.000145644853,0.0483333
,,,0.000145645853,0.0483333
,,,0.000145646853,0.0483333
,,,0.000145647853,0.0483333
,,,0.000145648853,0.0483333
,,,0.000145649853,0.0483333
,,,0.000145650853,0.0483333
,,,0.000145651853,0.0483333
,,,0.000145652853,0.015
,,,0.000145653853,0.015
,,,0.000145654853,0.015
,,,0.000145655853,0.015
,,,0.000145656853,0.015
,,,0.000145657853,0.015
,,,0.000145658853,0.015
,,,0.000145659853,0.015
,,,0.000145660853,-0.0183333
,,,0.000145661853,-0.0183333
,,,0.000145662853,-0.0183333
,,,0.000145663853,-0.0183333
,,,0.000145664853,0.015
,,,0.000145665853,0.015
,,,0.000145666853,0.015
,,,0.000145667853,0.015
,,,0.000145668853,0.015
,,,0.000145669853,0.0483333
,,,0.000145670853,0.0483333
,,,0.000145671853,0.0483333
,,,0.000145672853,0.0483333
,,,0.000145673853,-0.0183333
,,,0.000145674853,-0.085
,,,0.000145675853,-0.118333
,,,0.000145676853,-0.085
,,,0.000145677853,-0.0516667
,,,0.000145678853,-0.0183333
,,,0.000145679853,0.015
,,,0.000145680853,0.015
,,,0.000145681853,0.015
,,,0.000145682853,0.0483333
,,,0.000145683853,0.0483333
,,,0.000145684853,0.0483333
,,,0.000145685853,0.0483333
,,,0.000145686853,0.0483333
,,,0.000145687853,0.0483333
,,,0.000145688853,0.0816667
,,,0.000145689853,0.115
,,,0.000145690853,0.115
,,,0.000145691853,0.115
,,,0.000145692853,0.115
,,,0.000145693853,0.115
,,,0.000145694853,0.115
,,,0.000145695853,0.0816667
,,,0.000145696853,0.0483333
,,,0.000145697853,0.015
,,,0.000145698853,-0.0516667
,,,0.000145699853,-0.0516667
,,,0.000145700853,-0.0516667
,,,0.000145701853,-0.0183333
,,,0.000145702853,-0.0183333
,,,0.000145703853,-0.0183333
,,,0.000145704853,-0.0183333
,,,0.000145705853,-0.0183333
,,,0.000145706853,-0.0183333
,,,0.000145707853,-0.0183333
,,,0.000145708853,0.015
,,,0.000145709853,0.015
,,,0.000145710853,0.015
,,,0.000145711853,0.015
,,,0.000145712853,0.015
,,,0.000145713853,0.015
,,,0.000145714853,0.015
,,,0.000145715853,0.015
,,,0.000145716853,0.015
,,,0.000145717853,-0.0183333
,,,0.000145718853,-0.0183333
,,,0.000145719853,-0.0183333
,,,0.000145720853,-0.0183333
,,,0.000145721853,-0.0183333
,,,0.000145722853,-0.0183333
,,,0.000145723853,-0.0516667
,,,0.000145724853,-0.0516667
,,,0.000145725853,-0.0516667
,,,0.000145726853,-0.0516667
,,,0.000145727853,-0.0516667
,,,0.000145728853,-0.0183333
,,,0.000145729853,-0.0183333
,,,0.000145730853,0.015
,,,0.000145731853,0.015
,,,0.000145732853,0.015
,,,0.000145733853,0.015
,,,0.000145734853,0.015
,,,0.000145735853,0.015
,,,0.000145736853,-0.0183333
,,,0.000145737853,-0.0183333
,,,0.000145738853,-0.0183333
,,,0.000145739853,-0.0183333
,,,0.000145740853,-0.0183333
,,,0.000145741853,-0.0183333
,,,0.000145742853,-0.0183333
,,,0.000145743853,-0.0183333
,,,0.000145744853,-0.0183333
,,,0.000145745853,-0.0183333
,,,0.000145746853,-0.0183333
,,,0.000145747853,-0.0183333
,,,0.000145748853,-0.0183333
,,,0.000145749853,-0.0183333
,,,0.000145750853,-0.0183333
,,,0.000145751853,-0.0183333
,,,0.000145752853,-0.0183333
,,,0.000145753853,-0.0183333
,,,0.000145754853,0.015
,,,0.000145755853,0.015
,,,0.000145756853,0.015
,,,0.000145757853,0.015
,,,0.000145758853,0.015
,,,0.000145759853,0.015
,,,0.000145760853,-0.0183333
,,,0.000145761853,-0.0183333
,,,0.000145762853,0.015
,,,0.000145763853,0.015
,,,0.000145764853,0.015
,,,0.000145765853,0.015
,,,0.000145766853,0.015
,,,0.000145767853,0.015
,,,0.000145768853,0.015
,,,0.000145769853,0.015
,,,0.000145770853,0.015
,,,0.000145771853,0.015
,,,0.000145772853,-0.0183333
,,,0.000145773853,-0.0183333
,,,0.000145774853,0.015
,,,0.000145775853,0.015
,,,0.000145776853,0.015
,,,0.000145777853,0.015
,,,0.000145778853,0.015
,,,0.000145779853,0.015
,,,0.000145780853,0.015
,,,0.000145781853,0.015
,,,0.000145782853,0.015
,,,0.000145783853,0.015
,,,0.000145784853,0.015
,,,0.000145785853,0.015
,,,0.000145786853,0.015
,,,0.000145787853,0.015
,,,0.000145788853,-0.0183333
,,,0.000145789853,-0.0183333
,,,0.000145790853,-0.0183333
,,,0.000145791853,-0.0183333
,,,0.000145792853,-0.0183333
,,,0.000145793853,-0.0183333
,,,0.000145794853,-0.0183333
,,,0.000145795853,-0.0183333
,,,0.000145796853,-0.0183333
,,,0.000145797853,-0.0183333
,,,0.000145798853,-0.0183333
,,,0.000145799853,-0.0183333
,,,0.000145800853,-0.0183333
,,,0.000145801853,-0.0183333
,,,0.000145802853,0.015
,,,0.000145803853,0.015
,,,0.000145804853,0.015
,,,0.000145805853,0.015
,,,0.000145806853,0.015
,,,0.000145807853,0.015
,,,0.000145808853,0.015
,,,0.000145809853,0.015
,,,0.000145810853,0.015
,,,0.000145811853,0.015
,,,0.000145812853,-0.0183333
,,,0.000145813853,0.015
,,,0.000145814853,0.0816667
,,,0.000145815853,0.115
,,,0.000145816853,0.115
,,,0.000145817853,0.115
,,,0.000145818853,0.0816667
,,,0.000145819853,0.015
,,,0.000145820853,-0.0183333
,,,0.000145821853,-0.0183333
,,,0.000145822853,-0.0183333
,,,0.000145823853,-0.0516667
,,,0.000145824853,-0.085
,,,0.000145825853,-0.085
,,,0.000145826853,-0.0516667
,,,0.000145827853,-0.0516667
,,,0.000145828853,-0.0516667
,,,0.000145829853,-0.085
,,,0.000145830853,-0.085
,,,0.000145831853,-0.085
,,,0.000145832853,-0.085
,,,0.000145833853,-0.085
,,,0.000145834853,-0.0516667
,,,0.000145835853,-0.0516667
,,,0.000145836853,-0.0516667
,,,0.000145837853,-0.0183333
,,,0.000145838853,0.015
,,,0.000145839853,0.0483333
,,,0.000145840853,0.0483333
,,,0.000145841853,0.0483333
,,,0.000145842853,0.0483333
,,,0.000145843853,0.0483333
,,,0.000145844853,0.0816667
,,,0.000145845853,0.0816667
,,,0.000145846853,0.0816667
,,,0.000145847853,0.0816667
,,,0.000145848853,0.0483333
,,,0.000145849853,0.0483333
,,,0.000145850853,0.0483333
,,,0.000145851853,0.0483333
,,,0.000145852853,0.0483333
,,,0.000145853853,0.0483333
,,,0.000145854853,0.0483333
,,,0.000145855853,0.0483333
,,,0.000145856853,0.015
,,,0.000145857853,-0.0183333
,,,0.000145858853,-0.0183333
,,,0.000145859853,-0.0183333
,,,0.000145860853,-0.0516667
,,,0.000145861853,-0.0516667
,,,0.000145862853,-0.0516667
,,,0.000145863853,-0.0183333
,,,0.000145864853,-0.0183333
,,,0.000145865853,-0.0183333
,,,0.000145866853,-0.0183333
,,,0.000145867853,0.015
,,,0.000145868853,0.015
,,,0.000145869853,0.015
,,,0.000145870853,0.0483333
,,,0.000145871853,0.0483333
,,,0.000145872853,0.0483333
,,,0.000145873853,0.0483333
,,,0.000145874853,0.0483333
,,,0.000145875853,0.0483333
,,,0.000145876853,0.0483333
,,,0.000145877853,0.0483333
,,,0.000145878853,0.0483333
,,,0.000145879853,0.0483333
,,,0.000145880853,0.0483333
,,,0.000145881853,0.015
,,,0.000145882853,0.015
,,,0.000145883853,0.015
,,,0.000145884853,-0.0183333
,,,0.000145885853,-0.0183333
,,,0.000145886853,-0.0183333
,,,0.000145887853,-0.0183333
,,,0.000145888853,-0.0183333
,,,0.000145889853,-0.0183333
,,,0.000145890853,-0.0183333
,,,0.000145891853,-0.0183333
,,,0.000145892853,-0.0183333
,,,0.000145893853,0.015
,,,0.000145894853,0.015
,,,0.000145895853,0.015
,,,0.000145896853,0.0483333
,,,0.000145897853,0.0483333
,,,0.000145898853,0.0816667
,,,0.000145899853,0.0816667
,,,0.000145900853,0.0816667
,,,0.000145901853,0.0816667
,,,0.000145902853,0.0816667
,,,0.000145903853,0.0483333
,,,0.000145904853,0.0483333
,,,0.000145905853,0.0483333
,,,0.000145906853,0.015
,,,0.000145907853,-0.0183333
,,,0.000145908853,-0.0183333
,,,0.000145909853,-0.0183333
,,,0.000145910853,-0.0183333
,,,0.000145911853,-0.0183333
,,,0.000145912853,-0.0183333
,,,0.000145913853,-0.0183333
,,,0.000145914853,-0.0183333
,,,0.000145915853,-0.0183333
,,,0.000145916853,-0.0183333
,,,0.000145917853,-0.0183333
,,,0.000145918853,0.015
,,,0.000145919853,0.015
,,,0.000145920853,0.015
,,,0.000145921853,0.0483333
,,,0.000145922853,0.0483333
,,,0.000145923853,0.0483333
,,,0.000145924853,0.0483333
,,,0.000145925853,0.0483333
,,,0.000145926853,0.0483333
,,,0.000145927853,0.0483333
,,,0.000145928853,0.0483333
,,,0.000145929853,0.0483333
,,,0.000145930853,0.0483333
,,,0.000145931853,0.015
