emb/color_stat/C1analog_output00006.csv

"Record Length",100002,"Points",0.0001452,1.38667
"Sample Interval",1e-009,s,0.000145201,1.38667
"Trigger Point",-145199,"Samples",0.000145202,1.38667
"Trigger Time",-0.99999,s,0.000145203,1.38667
,,,0.000145204,1.38667
"Horizontal Offset",0.0001452,s,0.000145205,1.40333
,,,0.000145206,1.40333
,,,0.000145207,1.40333
,,,0.000145208,1.40333
,,,0.000145209,1.40333
,,,0.00014521,1.38667
,,,0.000145211,1.40333
,,,0.000145212,1.38667
,,,0.000145213,1.38667
,,,0.000145214,1.38667
,,,0.000145215,1.38667
,,,0.000145216,1.38667
,,,0.000145217,1.38667
,,,0.000145218,1.37
,,,0.000145219,1.37
,,,0.00014522,1.37
,,,0.000145221,1.37
,,,0.000145222,1.37
,,,0.000145223,1.37
,,,0.000145224,1.35333
,,,0.000145225,1.35333
,,,0.000145226,1.35333
,,,0.000145227,1.35333
,,,0.000145228,1.35333
,,,0.000145229,1.35333
,,,0.00014523,1.35333
,,,0.000145231,1.35333
,,,0.000145232,1.35333
,,,0.000145233,1.35333
,,,0.000145234,1.35333
,,,0.000145235,1.35333
,,,0.000145236,1.33667
,,,0.000145237,1.33667
,,,0.000145238,1.33667
,,,0.000145239,1.33667
,,,0.00014524,1.33667
,,,0.000145241,1.33667
,,,0.000145242,1.35333
,,,0.000145243,1.35333
,,,0.000145244,1.35333
,,,0.000145245,1.35333
,,,0.000145246,1.33667
,,,0.000145247,1.32
,,,0.000145248,1.32
,,,0.000145249,1.32
,,,0.00014525,1.32
,,,0.000145251,1.32
,,,0.000145252,1.33667
,,,0.000145253,1.33667
,,,0.000145254,1.33667
,,,0.000145255,1.33667
,,,0.000145256,1.33667
,,,0.000145257,1.32
,,,0.000145258,1.32
,,,0.000145259,1.32
,,,0.00014526,1.32
,,,0.000145261,1.32
,,,0.000145262,1.25333
,,,0.000145263,1.18667
,,,0.000145264,1.22
,,,0.000145265,1.25333
,,,0.000145266,1.25333
,,,0.000145267,1.25333
,,,0.000145268,1.25333
,,,0.000145269,1.25333
,,,0.00014527,1.25333
,,,0.000145271,1.27
,,,0.000145272,1.25333
,,,0.000145273,1.22
,,,0.000145274,1.22
,,,0.000145275,1.25333
,,,0.000145276,1.25333
,,,0.000145277,1.27
,,,0.000145278,1.28667
,,,0.000145279,1.32
,,,0.00014528,1.32
,,,0.000145281,1.35333
,,,0.000145282,1.35333
,,,0.000145283,1.35333
,,,0.000145284,1.33667
,,,0.000145285,1.32
,,,0.000145286,1.32
,,,0.000145287,1.30333
,,,0.000145288,1.28667
,,,0.000145289,1.28667
,,,0.00014529,1.27
,,,0.000145291,1.27
,,,0.000145292,1.27
,,,0.000145293,1.25333
,,,0.000145294,1.25333
,,,0.000145295,1.23667
,,,0.000145296,1.22
,,,0.000145297,1.22
,,,0.000145298,1.22
,,,0.000145299,1.23667
,,,0.0001453,1.25333
,,,0.000145301,1.25333
,,,0.000145302,1.27
,,,0.000145303,1.27
,,,0.000145304,1.27
,,,0.000145305,1.28667
,,,0.000145306,1.28667
,,,0.000145307,1.28667
,,,0.000145308,1.28667
,,,0.000145309,1.28667
,,,0.00014531,1.27
,,,0.000145311,1.27
,,,0.000145312,1.27
,,,0.000145313,1.25333
,,,0.000145314,1.25333
,,,0.000145315,1.23667
,,,0.000145316,1.23667
,,,0.000145317,1.22
,,,0.000145318,1.22
,,,0.000145319,1.20333
,,,0.00014532,1.20333
,,,0.000145321,1.20333
,,,0.000145322,1.20333
,,,0.000145323,1.20333
,,,0.000145324,1.20333
,,,0.000145325,1.22
,,,0.000145326,1.23667
,,,0.000145327,1.23667
,,,0.000145328,1.23667
,,,0.000145329,1.25333
,,,0.00014533,1.25333
,,,0.000145331,1.25333
,,,0.000145332,1.27
,,,0.000145333,1.27
,,,0.000145334,1.27
,,,0.000145335,1.27
,,,0.000145336,1.27
,,,0.000145337,1.25333
,,,0.000145338,1.25333
,,,0.000145339,1.25333
,,,0.00014534,1.25333
,,,0.000145341,1.23667
,,,0.000145342,1.23667
,,,0.000145343,1.23667
,,,0.000145344,1.22
,,,0.000145345,1.22
,,,0.000145346,1.22
,,,0.000145347,1.20333
,,,0.000145348,1.20333
,,,0.000145349,1.20333
,,,0.00014535,1.20333
,,,0.000145351,1.20333
,,,0.000145352,1.20333
,,,0.000145353,1.20333
,,,0.000145354,1.20333
,,,0.000145355,1.22
,,,0.000145356,1.22
,,,0.000145357,1.22
,,,0.000145358,1.22
,,,0.000145359,1.23667
,,,0.00014536,1.23667
,,,0.000145361,1.23667
,,,0.000145362,1.23667
,,,0.000145363,1.23667
,,,0.000145364,1.23667
,,,0.000145365,1.23667
,,,0.000145366,1.23667
,,,0.000145367,1.23667
,,,0.000145368,1.23667
,,,0.000145369,1.25333
,,,0.00014537,1.23667
,,,0.000145371,1.23667
,,,0.000145372,1.22
,,,0.000145373,1.22
,,,0.000145374,1.22
,,,0.000145375,1.22
,,,0.000145376,1.22
,,,0.000145377,1.22
,,,0.000145378,1.22
,,,0.000145379,1.22
,,,0.00014538,1.22
,,,0.000145381,1.22
,,,0.000145382,1.22
,,,0.000145383,1.22
,,,0.000145384,1.22
,,,0.000145385,1.22
,,,0.000145386,1.23667
,,,0.000145387,1.23667
,,,0.000145388,1.23667
,,,0.000145389,1.23667
,,,0.00014539,1.23667
,,,0.000145391,1.22
,,,0.000145392,1.22
,,,0.000145393,1.22
,,,0.000145394,1.22
,,,0.000145395,1.22
,,,0.000145396,1.22
,,,0.000145397,1.22
,,,0.000145398,1.22
,,,0.000145399,1.22
,,,0.0001454,1.20333
,,,0.000145401,1.25333
,,,0.000145402,1.33667
,,,0.000145403,1.32
,,,0.000145404,1.27
,,,0.000145405,1.28667
,,,0.000145406,1.30333
,,,0.000145407,1.30333
,,,0.000145408,1.30333
,,,0.000145409,1.32
,,,0.00014541,1.32
,,,0.000145411,1.35333
,,,0.000145412,1.35333
,,,0.000145413,1.33667
,,,0.000145414,1.33667
,,,0.000145415,1.32
,,,0.000145416,1.28667
,,,0.000145417,1.27
,,,0.000145418,1.27
,,,0.000145419,1.27
,,,0.00014542,1.27
,,,0.000145421,1.25333
,,,0.000145422,1.25333
,,,0.000145423,1.25333
,,,0.000145424,1.25333
,,,0.000145425,1.25333
,,,0.000145426,1.25333
,,,0.000145427,1.23667
,,,0.000145428,1.20333
,,,0.000145429,1.20333
,,,0.00014543,1.20333
,,,0.000145431,1.20333
,,,0.000145432,1.20333
,,,0.000145433,1.20333
,,,0.000145434,1.20333
,,,0.000145435,1.20333
,,,0.000145436,1.20333
,,,0.000145437,1.20333
,,,0.000145438,1.20333
,,,0.000145439,1.22
,,,0.00014544,1.23667
,,,0.000145441,1.23667
,,,0.000145442,1.25333
,,,0.000145443,1.25333
,,,0.000145444,1.23667
,,,0.000145445,1.23667
,,,0.000145446,1.23667
,,,0.000145447,1.22
,,,0.000145448,1.20333
,,,0.000145449,1.18667
,,,0.00014545,1.15333
,,,0.000145451,1.13667
,,,0.000145452,1.12
,,,0.000145453,1.10333
,,,0.000145454,1.08667
,,,0.000145455,1.08667
,,,0.000145456,1.08667
,,,0.000145457,1.08667
,,,0.000145458,1.07
,,,0.000145459,1.07
,,,0.00014546,1.07
,,,0.000145461,1.05333
,,,0.000145462,1.05333
,,,0.000145463,1.05333
,,,0.000145464,1.05333
,,,0.000145465,1.05333
,,,0.000145466,1.05333
,,,0.000145467,1.05333
,,,0.000145468,1.07
,,,0.000145469,1.07
,,,0.00014547,1.07
,,,0.000145471,1.08667
,,,0.000145472,1.08667
,,,0.000145473,1.08667
,,,0.000145474,1.08667
,,,0.000145475,1.12
,,,0.000145476,1.12
,,,0.000145477,1.12
,,,0.000145478,1.12
,,,0.000145479,1.13667
,,,0.00014548,1.13667
,,,0.000145481,1.13667
,,,0.000145482,1.15333
,,,0.000145483,1.15333
,,,0.000145484,1.15333
,,,0.000145485,1.15333
,,,0.000145486,1.17
,,,0.000145487,1.17
,,,0.000145488,1.18667
,,,0.000145489,1.18667
,,,0.00014549,1.18667
,,,0.000145491,1.18667
,,,0.000145492,1.18667
,,,0.000145493,1.18667
,,,0.000145494,1.17
,,,0.000145495,1.17
,,,0.000145496,1.17
,,,0.000145497,1.17
,,,0.000145498,1.18667
,,,0.000145499,1.18667
,,,0.0001455,1.18667
,,,0.000145501,1.18667
,,,0.000145502,1.18667
,,,0.000145503,1.18667
,,,0.000145504,1.18667
,,,0.000145505,1.17
,,,0.000145506,1.17
,,,0.000145507,1.17
,,,0.000145508,1.15333
,,,0.000145509,1.15333
,,,0.00014551,1.15333
,,,0.000145511,1.15333
,,,0.000145512,1.15333
,,,0.000145513,1.15333
,,,0.000145514,1.13667
,,,0.000145515,1.15333
,,,0.000145516,1.13667
,,,0.000145517,1.13667
,,,0.000145518,1.13667
,,,0.000145519,1.15333
,,,0.00014552,1.15333
,,,0.000145521,1.15333
,,,0.000145522,1.15333
,,,0.000145523,1.15333
,,,0.000145524,1.15333
,,,0.000145525,1.15333
,,,0.000145526,1.15333
,,,0.000145527,1.15333
,,,0.000145528,1.15333
,,,0.000145529,1.15333
,,,0.00014553,1.15333
,,,0.000145531,1.15333
,,,0.000145532,1.17
,,,0.000145533,1.17
,,,0.000145534,1.15333
,,,0.000145535,1.15333
,,,0.000145536,1.15333
,,,0.000145537,1.15333
,,,0.000145538,1.15333
,,,0.000145539,1.15333
,,,0.00014554,1.15333
,,,0.000145541,1.15333
,,,0.000145542,1.07
,,,0.000145543,1.02
,,,0.000145544,1.03667
,,,0.000145545,1.05333
,,,0.000145546,1.05333
,,,0.000145547,1.05333
,,,0.000145548,1.05333
,,,0.000145549,1.05333
,,,0.00014555,1.05333
,,,0.000145551,1.07
,,,0.000145552,1.05333
,,,0.000145553,1.03667
,,,0.000145554,1.03667
,,,0.000145555,1.03667
,,,0.000145556,1.05333
,,,0.000145557,1.07
,,,0.000145558,1.08667
,,,0.000145559,1.10333
,,,0.00014556,1.12
,,,0.000145561,1.15333
,,,0.000145562,1.18667
,,,0.000145563,1.18667
,,,0.000145564,1.15333
,,,0.000145565,1.15333
,,,0.000145566,1.15333
,,,0.000145567,1.13667
,,,0.000145568,1.12
,,,0.000145569,1.12
,,,0.00014557,1.12
,,,0.000145571,1.10333
,,,0.000145572,1.08667
,,,0.000145573,1.08667
,,,0.000145574,1.07
,,,0.000145575,1.07
,,,0.000145576,1.07
,,,0.000145577,1.07
,,,0.000145578,1.07
,,,0.000145579,1.07
,,,0.00014558,1.07
,,,0.000145581,1.07
,,,0.000145582,1.07
,,,0.000145583,1.07
,,,0.000145584,1.08667
,,,0.000145585,1.08667
,,,0.000145586,1.10333
,,,0.000145587,1.08667
,,,0.000145588,1.08667
,,,0.000145589,1.08667
,,,0.00014559,1.08667
,,,0.000145591,1.07
,,,0.000145592,1.08667
,,,0.000145593,1.07
,,,0.000145594,1.07
,,,0.000145595,1.07
,,,0.000145596,1.05333
,,,0.000145597,1.03667
,,,0.000145598,1.03667
,,,0.000145599,1.03667
,,,0.0001456,1.03667
,,,0.000145601,1.02
,,,0.000145602,1.03667
,,,0.000145603,1.03667
,,,0.000145604,1.03667
,,,0.000145605,1.03667
,,,0.000145606,1.05333
,,,0.000145607,1.05333
,,,0.000145608,1.05333
,,,0.000145609,1.05333
,,,0.00014561,1.07
,,,0.000145611,1.07
,,,0.000145612,1.08667
,,,0.000145613,1.08667
,,,0.000145614,1.08667
,,,0.000145615,1.08667
,,,0.000145616,1.08667
,,,0.000145617,1.08667
,,,0.000145618,1.07
,,,0.000145619,1.07
,,,0.00014562,1.07
,,,0.000145621,1.07
,,,0.000145622,1.07
,,,0.000145623,1.05333
,,,0.000145624,1.05333
,,,0.000145625,1.05333
,,,0.000145626,1.05333
,,,0.000145627,1.05333
,,,0.000145628,1.03667
,,,0.000145629,1.03667
,,,0.00014563,1.03667
,,,0.000145631,1.03667
,,,0.000145632,1.03667
,,,0.000145633,1.03667
,,,0.000145634,1.03667
,,,0.000145635,1.03667
,,,0.000145636,1.03667
,,,0.000145637,1.03667
,,,0.000145638,1.03667
,,,0.000145639,1.05333
,,,0.00014564,1.05333
,,,0.000145641,1.05333
,,,0.000145642,1.05333
,,,0.000145643,1.05333
,,,0.000145644,1.05333
,,,0.000145645,1.05333
,,,0.000145646,1.05333
,,,0.000145647,1.05333
,,,0.000145648,1.05333
,,,0.000145649,1.07
,,,0.00014565,1.07
,,,0.000145651,1.05333
,,,0.000145652,1.05333
,,,0.000145653,1.05333
,,,0.000145654,1.05333
,,,0.000145655,1.05333
,,,0.000145656,1.05333
,,,0.000145657,1.05333
,,,0.000145658,1.05333
,,,0.000145659,1.05333
,,,0.00014566,1.05333
,,,0.000145661,1.05333
,,,0.000145662,1.05333
,,,0.000145663,1.05333
,,,0.000145664,1.05333
,,,0.000145665,1.05333
,,,0.000145666,1.05333
,,,0.000145667,1.05333
,,,0.000145668,1.05333
,,,0.000145669,1.05333
,,,0.00014567,1.05333
,,,0.000145671,1.05333
,,,0.000145672,1.05333
,,,0.000145673,1.05333
,,,0.000145674,1.05333
,,,0.000145675,1.03667
,,,0.000145676,1.03667
,,,0.000145677,1.03667
,,,0.000145678,1.03667
,,,0.000145679,1.03667
,,,0.00014568,1.03667
,,,0.000145681,1.08667
,,,0.000145682,1.18667
,,,0.000145683,1.17
,,,0.000145684,1.12
,,,0.000145685,1.12
,,,0.000145686,1.13667
,,,0.000145687,1.13667
,,,0.000145688,1.13667
,,,0.000145689,1.13667
,,,0.00014569,1.17
,,,0.000145691,1.18667
,,,0.000145692,1.20333
,,,0.000145693,1.20333
,,,0.000145694,1.20333
,,,0.000145695,1.18667
,,,0.000145696,1.13667
,,,0.000145697,1.12
,,,0.000145698,1.12
,,,0.000145699,1.12
,,,0.0001457,1.12
,,,0.000145701,1.10333
,,,0.000145702,1.10333
,,,0.000145703,1.10333
,,,0.000145704,1.10333
,,,0.000145705,1.10333
,,,0.000145706,1.08667
,,,0.000145707,1.08667
,,,0.000145708,1.07
,,,0.000145709,1.05333
,,,0.00014571,1.05333
,,,0.000145711,1.05333
,,,0.000145712,1.05333
,,,0.000145713,1.05333
,,,0.000145714,1.05333
,,,0.000145715,1.05333
,,,0.000145716,1.05333
,,,0.000145717,1.05333
,,,0.000145718,1.05333
,,,0.000145719,1.07
,,,0.00014572,1.07
,,,0.000145721,1.08667
,,,0.000145722,1.08667
,,,0.000145723,1.08667
,,,0.000145724,1.08667
,,,0.000145725,1.08667
,,,0.000145726,1.08667
,,,0.000145727,1.08667
,,,0.000145728,1.08667
,,,0.000145729,1.10333
,,,0.00014573,1.10333
,,,0.000145731,1.10333
,,,0.000145732,1.10333
,,,0.000145733,1.08667
,,,0.000145734,1.08667
,,,0.000145735,1.08667
,,,0.000145736,1.08667
,,,0.000145737,1.08667
,,,0.000145738,1.08667
,,,0.000145739,1.08667
,,,0.00014574,1.08667
,,,0.000145741,1.08667
,,,0.000145742,1.08667
,,,0.000145743,1.08667
,,,0.000145744,1.08667
,,,0.000145745,1.08667
,,,0.000145746,1.08667
,,,0.000145747,1.08667
,,,0.000145748,1.07
,,,0.000145749,1.07
,,,0.00014575,1.07
,,,0.000145751,1.05333
,,,0.000145752,1.05333
,,,0.000145753,1.05333
,,,0.000145754,1.05333
,,,0.000145755,1.05333
,,,0.000145756,1.03667
,,,0.000145757,1.05333
,,,0.000145758,1.05333
,,,0.000145759,1.05333
,,,0.00014576,1.05333
,,,0.000145761,1.05333
,,,0.000145762,1.05333
,,,0.000145763,1.05333
,,,0.000145764,1.05333
,,,0.000145765,1.05333
,,,0.000145766,1.07
,,,0.000145767,1.07
,,,0.000145768,1.07
,,,0.000145769,1.05333
,,,0.00014577,1.05333
,,,0.000145771,1.05333
,,,0.000145772,1.05333
,,,0.000145773,1.05333
,,,0.000145774,1.05333
,,,0.000145775,1.05333
,,,0.000145776,1.05333
,,,0.000145777,1.05333
,,,0.000145778,1.05333
,,,0.000145779,1.05333
,,,0.00014578,1.05333
,,,0.000145781,1.03667
,,,0.000145782,1.03667
,,,0.000145783,1.03667
,,,0.000145784,1.03667
,,,0.000145785,1.03667
,,,0.000145786,1.03667
,,,0.000145787,1.02
,,,0.000145788,1.02
,,,0.000145789,1.02
,,,0.00014579,1.02
,,,0.000145791,1.02
,,,0.000145792,1.02
,,,0.000145793,1.02
,,,0.000145794,1.02
,,,0.000145795,1.00333
,,,0.000145796,1.00333
,,,0.000145797,1.00333
,,,0.000145798,1.00333
,,,0.000145799,1.00333
,,,0.0001458,1.00333
,,,0.000145801,1.00333
,,,0.000145802,1.00333
,,,0.000145803,1.00333
,,,0.000145804,1.00333
,,,0.000145805,1.00333
,,,0.000145806,1.00333
,,,0.000145807,1.00333
,,,0.000145808,1.00333
,,,0.000145809,1.00333
,,,0.00014581,1.00333
,,,0.000145811,1.00333
,,,0.000145812,1.00333
,,,0.000145813,1.00333
,,,0.000145814,1.00333
,,,0.000145815,1.00333
,,,0.000145816,1.00333
,,,0.000145817,1.00333
,,,0.000145818,1.00333
,,,0.000145819,1.00333
,,,0.00014582,1.00333
,,,0.000145821,1.00333
,,,0.000145822,0.92
,,,0.000145823,0.87
,,,0.000145824,0.886667
,,,0.000145825,0.92
,,,0.000145826,0.92
,,,0.000145827,0.92
,,,0.000145828,0.92
,,,0.000145829,0.903333
,,,0.00014583,0.92
,,,0.000145831,0.936667
,,,0.000145832,0.936667
,,,0.000145833,0.903333
,,,0.000145834,0.903333
,,,0.000145835,0.92
,,,0.000145836,0.92
,,,0.000145837,0.936667
,,,0.000145838,0.953333
,,,0.000145839,0.97
,,,0.00014584,0.986667
,,,0.000145841,1.02
,,,0.000145842,1.03667
,,,0.000145843,1.03667
,,,0.000145844,1.00333
,,,0.000145845,1.00333
,,,0.000145846,0.986667
,,,0.000145847,0.97
,,,0.000145848,0.953333
,,,0.000145849,0.953333
,,,0.00014585,0.953333
,,,0.000145851,0.936667
,,,0.000145852,0.92
,,,0.000145853,0.903333
,,,0.000145854,0.903333
,,,0.000145855,0.903333
,,,0.000145856,0.886667
,,,0.000145857,0.886667
,,,0.000145858,0.886667
,,,0.000145859,0.903333
,,,0.00014586,0.903333
,,,0.000145861,0.903333
,,,0.000145862,0.92
,,,0.000145863,0.92
,,,0.000145864,0.92
,,,0.000145865,0.936667
,,,0.000145866,0.936667
,,,0.000145867,0.936667
,,,0.000145868,0.936667
,,,0.000145869,0.936667
,,,0.00014587,0.936667
,,,0.000145871,0.936667
,,,0.000145872,0.936667
,,,0.000145873,0.92
,,,0.000145874,0.903333
,,,0.000145875,0.903333
,,,0.000145876,0.903333
,,,0.000145877,0.886667
,,,0.000145878,0.87
,,,0.000145879,0.87
,,,0.00014588,0.87
,,,0.000145881,0.87
,,,0.000145882,0.87
,,,0.000145883,0.886667
,,,0.000145884,0.886667
,,,0.000145885,0.886667
,,,0.000145886,0.886667
,,,0.000145887,0.903333
,,,0.000145888,0.903333
,,,0.000145889,0.903333
,,,0.00014589,0.903333
,,,0.000145891,0.92
,,,0.000145892,0.936667
,,,0.000145893,0.936667
,,,0.000145894,0.936667
,,,0.000145895,0.936667
,,,0.000145896,0.936667
,,,0.000145897,0.936667
,,,0.000145898,0.936667
,,,0.000145899,0.936667
,,,0.0001459,0.936667
,,,0.000145901,0.92
,,,0.000145902,0.92
,,,0.000145903,0.92
,,,0.000145904,0.92
,,,0.000145905,0.903333
,,,0.000145906,0.903333
,,,0.000145907,0.903333
,,,0.000145908,0.903333
,,,0.000145909,0.886667
,,,0.00014591,0.886667
,,,0.000145911,0.886667
,,,0.000145912,0.886667
,,,0.000145913,0.886667
,,,0.000145914,0.886667
,,,0.000145915,0.886667
,,,0.000145916,0.886667
,,,0.000145917,0.886667
,,,0.000145918,0.886667
,,,0.000145919,0.886667
,,,0.00014592,0.903333
,,,0.000145921,0.903333
,,,0.000145922,0.903333
,,,0.000145923,0.903333
,,,0.000145924,0.903333
,,,0.000145925,0.92
,,,0.000145926,0.92
,,,0.000145927,0.92
,,,0.000145928,0.903333
,,,0.000145929,0.92
,,,0.00014593,0.92
,,,0.000145931,0.92
,,,0.000145932,0.92
,,,0.000145933,0.92
,,,0.000145934,0.92
,,,0.000145935,0.92
,,,0.000145936,0.903333
,,,0.000145937,0.903333
,,,0.000145938,0.92
,,,0.000145939,0.903333
,,,0.00014594,0.903333
,,,0.000145941,0.903333
,,,0.000145942,0.903333
,,,0.000145943,0.903333
,,,0.000145944,0.903333
,,,0.000145945,0.903333
,,,0.000145946,0.903333
,,,0.000145947,0.903333
,,,0.000145948,0.903333
,,,0.000145949,0.903333
,,,0.00014595,0.903333
,,,0.000145951,0.903333
,,,0.000145952,0.903333
,,,0.000145953,0.903333
,,,0.000145954,0.903333
,,,0.000145955,0.903333
,,,0.000145956,0.903333
,,,0.000145957,0.903333
,,,0.000145958,0.903333
,,,0.000145959,0.903333
,,,0.00014596,0.886667
,,,0.000145961,0.953333
,,,0.000145962,1.03667
,,,0.000145963,1.02
,,,0.000145964,0.986667
,,,0.000145965,1.00333
,,,0.000145966,1.00333
,,,0.000145967,1.00333
,,,0.000145968,1.02
,,,0.000145969,1.02
,,,0.00014597,1.02
,,,0.000145971,1.05333
,,,0.000145972,1.05333
,,,0.000145973,1.05333
,,,0.000145974,1.03667
,,,0.000145975,1.03667
,,,0.000145976,0.986667
,,,0.000145977,0.97
,,,0.000145978,0.986667
,,,0.000145979,0.97
,,,0.00014598,0.936667
,,,0.000145981,0.92
,,,0.000145982,0.92
,,,0.000145983,0.92
,,,0.000145984,0.92
,,,0.000145985,0.92
,,,0.000145986,0.92
,,,0.000145987,0.903333
,,,0.000145988,0.903333
,,,0.000145989,0.886667
,,,0.00014599,0.886667
,,,0.000145991,0.886667
,,,0.000145992,0.886667
,,,0.000145993,0.87
,,,0.000145994,0.87
,,,0.000145995,0.903333
,,,0.000145996,0.903333
,,,0.000145997,0.903333
,,,0.000145998,0.903333
,,,0.000145999,0.903333
,,,0.000146,0.903333
,,,0.000146001,0.92
,,,0.000146002,0.936667
,,,0.000146003,0.936667
,,,0.000146004,0.936667
,,,0.000146005,0.936667
,,,0.000146006,0.936667
,,,0.000146007,0.953333
,,,0.000146008,0.953333
,,,0.000146009,0.97
,,,0.00014601,0.97
,,,0.000146011,0.953333
,,,0.000146012,0.953333
,,,0.000146013,0.953333
,,,0.000146014,0.953333
,,,0.000146015,0.953333
,,,0.000146016,0.953333
,,,0.000146017,0.953333
,,,0.000146018,0.953333
,,,0.000146019,0.953333
,,,0.00014602,0.953333
,,,0.000146021,0.953333
,,,0.000146022,0.953333
,,,0.000146023,0.953333
,,,0.000146024,0.936667
,,,0.000146025,0.936667
,,,0.000146026,0.936667
,,,0.000146027,0.92
,,,0.000146028,0.903333
,,,0.000146029,0.903333
,,,0.00014603,0.886667
,,,0.000146031,0.886667
,,,0.000146032,0.886667
,,,0.000146033,0.886667
,,,0.000146034,0.886667
,,,0.000146035,0.886667
,,,0.000146036,0.87
,,,0.000146037,0.87
,,,0.000146038,0.886667
,,,0.000146039,0.886667
,,,0.00014604,0.886667
,,,0.000146041,0.886667
,,,0.000146042,0.886667
,,,0.000146043,0.886667
,,,0.000146044,0.886667
,,,0.000146045,0.903333
,,,0.000146046,0.92
,,,0.000146047,0.92
,,,0.000146048,0.92
,,,0.000146049,0.92
,,,0.00014605,0.92
,,,0.000146051,0.92
,,,0.000146052,0.92
,,,0.000146053,0.903333
,,,0.000146054,0.903333
,,,0.000146055,0.903333
,,,0.000146056,0.903333
,,,0.000146057,0.903333
,,,0.000146058,0.903333
,,,0.000146059,0.886667
,,,0.00014606,0.886667
,,,0.000146061,0.886667
,,,0.000146062,0.886667
,,,0.000146063,0.886667
,,,0.000146064,0.87
,,,0.000146065,0.87
,,,0.000146066,0.87
,,,0.000146067,0.87
,,,0.000146068,0.87
,,,0.000146069,0.87
,,,0.00014607,0.87
,,,0.000146071,0.87
,,,0.000146072,0.87
,,,0.000146073,0.87
,,,0.000146074,0.853333
,,,0.000146075,0.853333
,,,0.000146076,0.853333
,,,0.000146077,0.853333
,,,0.000146078,0.853333
,,,0.000146079,0.853333
,,,0.00014608,0.853333
,,,0.000146081,0.853333
,,,0.000146082,0.853333
,,,0.000146083,0.853333
,,,0.000146084,0.853333
,,,0.000146085,0.853333
,,,0.000146086,0.853333
,,,0.000146087,0.853333
,,,0.000146088,0.853333
,,,0.000146089,0.853333
,,,0.00014609,0.853333
